{
  "images" : [
    {
      "resizing" : {
        "mode" : "9-part",
        "center" : {
          "mode" : "tile",
          "width" : 1,
          "height" : 1
        },
        "cap-insets" : {
          "bottom" : 22,
          "top" : 21,
          "right" : 4,
          "left" : 4
        }
      },
      "idiom" : "universal",
      "filename" : "buttonEnter.png",
      "scale" : "1x"
    },
    {
      "resizing" : {
        "mode" : "9-part",
        "center" : {
          "mode" : "tile",
          "width" : 1,
          "height" : 1
        },
        "cap-insets" : {
          "bottom" : 44,
          "top" : 43,
          "right" : 8,
          "left" : 8
        }
      },
      "idiom" : "universal",
      "filename" : "buttonEnter@2x.png",
      "scale" : "2x"
    },
    {
      "resizing" : {
        "mode" : "9-part",
        "center" : {
          "mode" : "tile",
          "width" : 1,
          "height" : 1
        },
        "cap-insets" : {
          "bottom" : 66,
          "top" : 65,
          "right" : 12,
          "left" : 12
        }
      },
      "idiom" : "universal",
      "filename" : "buttonEnter@3x.png",
      "scale" : "3x"
    }
  ],
  "info" : {
    "version" : 1,
    "author" : "xcode"
  }
}